Chapter 3 Multi-state model | Movement ecology of Hells Canyon bighorn sheep: multi-state model state assignment
…
  mutate(sex_age_combo = case_when(
    SEX == "F" & AGECLASS == "Adult" ~ "Adult Female",
    SEX == "M" & AGECLASS == "Adult" ~ "Adult Male",
    SEX == "F" & AGECLASS == "Yearling" ~ "Yearling Female",
    SEX == "M" & AGECLASS == "Yearling" ~ "Yearling Male",
    SEX == "F" & AGECLASS == "Lamb" ~ "Lamb Female",
    SEX == "M" & AGECLASS == "Lamb" ~ "Lamb Male",
    is.na(AGECLASS) & SEX == "F" ~ "Unknown Female",
    is.na(AGECLASS) & SEX == "M" ~ "Unknown Male",
  )) %>% 
  group_by(sex_age_combo, state) %>% 
  tally() %>% 
  arrange(desc(n))

## # A tibble: 21 × 3
## # Groups:   sex_age_combo [7]
##    sex_age_combo   state                 n
##    <chr>           <chr>             <int>
##  1 Adult Female    home_population  469785
##  2 Adult Female    transit          233509
##  3 Adult Male      home_population  186710
##  4 Adult Male      transit           26708
##  5 Yearling Female home_population   24801
##  6 Lamb Female     home_population   24595
##  7 Lamb Male       home_population   18854
##  8 Adult Male      other_population  17925
##  9 Yearling Male   home_population   17278
## 10 Adult Female    other_population   7964
## # ℹ 11 more rows
…
  mutate(sex_age_combo = case_when(
    SEX == "F" & AGECLASS == "Adult" ~ "Adult Female",
    SEX == "M" & AGECLASS == "Adult" ~ "Adult Male",
    SEX == "F" & AGECLASS == "Yearling" ~ "Yearling Female",
    SEX == "M" & AGECLASS == "Yearling" ~ "Yearling Male",
    SEX == "F" & AGECLASS == "Lamb" ~ "Lamb Female",
    SEX == "M" & AGECLASS == "Lamb" ~ "Lamb Male",
    is.na(AGECLASS) & SEX == "F" ~ "Unknown Female",
    is.na(AGECLASS) & SEX == "M" ~ "Unknown Male",
  )) %>% 
  group_by(sex_age_combo, state_switches) %>% 
  tally() %>% 
  arrange(desc(n))

## # A tibble: 45 × 3
## # Groups:   sex_age_combo [7]
##    sex_age_combo   state_switches                  n
##    <chr>           <chr>                       <int>
##  1 Adult Female    no                         690180
##  2 Adult Male      no                         223201
##  3 Yearling Female no                          29985
##  4 Lamb Female     no                          28952
##  5 Lamb Male       no                          26753
##  6 Yearling Male   no                          22188
##  7 Adult Female    home_population_to_transit   8465
##  8 Adult Female    transit_to_home_population   8425
##  9 Adult Male      home_population_to_transit   3050
## 10 Adult Male      transit_to_home_population   3037
## # ℹ 35 more rows
…
